910372 967404 507
904078 798531 525
576618 560007 421
924398 987183 507
521751 530832 408
774899 645339 504
666301 582324 509
626102 687844 509
652241 922370 525
760971 895907 525
563026 766869 509
555014 731772 509
632585 985882 525
990618 794111 525
924744 653309 525
954612 730096 525
637118 592279 509
867444 727067 525
745233 956820 525
654186 861083 525
999745 593730 525
586667 958114 525
809944 806988 406
733447 729905 380
750063 873736 525
603607 805217 509
638485 952699 525
673061 514089 509
659874 695499 442
545539 984078 525
915596 707926 525
889221 950582 507
913631 820111 525
983888 627209 525
840726 807260 525
829557 860216 525
659485 621818 509
504412 878175 525
876850 631761 525
709194 946924 525
983832 798754 525
642726 891094 525
604266 579227 434
778697 798447 468
889303 811854 525
958830 978661 458
517650 587621 452
832138 561036 509
787973 896580 525
674704 627451 442
813947 566165 509
998695 989250 440
612331 900090 525
875903 812901 525
648710 596431 509
707494 634119 504
596346 602236 403
998338 681947 525
613383 813188 509
808418 852324 525
675908 615705 509
712613 845403 525
836367 853423 525
807447 933395 525
869181 867838 357
553424 515873 452
803608 728412 468
623937 520881 452
611968 775374 509
883230 898714 445
740888 688165 504
848123 839994 419
728290 560384 509
832670 827227 419
934366 734255 525
515971 513935 395
912958 576354 525
817889 583678 509
563375 900165 525
957276 851245 507
502497 677238 509
648806 789095 504
570467 739173 509
906252 630869 525
537705 998176 525
534054 674175 509
787840 819232 468
573828 533569 452
780882 769802 437
758094 844450 525
513574 917730 525
784769 924528 525
670902 595005 509
848141 866173 419
779631 742819 468
618113 703926 509
678552 821078 504
927182 568878 525
674688 503831 509
621545 863380 525
887900 834604 525
900820 531475 525
669934 867697 525
619592 926457 525
860112 936404 476
568231 805688 509
877638 685713 525
635739 578413 509
591170 751117 509
618562 547245 447
725691 787019 468
898380 639886 525
979875 731455 525
939662 659654 525
670191 800157 504
702687 500557 509
825941 681712 504
893221 840750 445
689433 725986 504
985563 521206 525
629724 632752 385
659369 861951 525
697060 663364 442
666399 686806 385
788554 971791 525
553511 781211 509
897423 892161 370
774567 542743 509
602127 754490 509
900022 882787 445
908079 680896 525
991604 850875 507
560362 640823 509
622303 962422 525
704663 844982 525
726290 784456 468
696621 791555 504
998769 922770 507
617068 550604 447
710661 946021 525
788034 712907 468
745800 756620 424
904576 511900 525
516112 735844 509
755177 643421 504
930350 924426 476
630186 792572 504
582623 788762 509
915537 742013 525
640648 903796 525
586780 874864 525
975159 891269 507
935772 523303 525
500202 662966 509
500294 593671 470
837598 681847 504
930495 968631 507
580616 763577 509
545095 503056 470
764805 545570 509
959624 570489 525
717542 562436 509
537171 679559 509
708006 725789 411
510469 910249 525
900873 922894 476
856329 916351 476
502015 969953 525
859561 549968 525
867686 841729 419
879408 771055 525
849410 867034 419
748827 764105 424
819437 688583 504
753514 698498 504
722841 677970 504
972651 747738 525
938480 824929 525
666635 946049 525
872730 531176 525
809876 632728 504
993586 865043 507
923277 684926 525
795767 797376 468
620619 741605 509
754082 628766 504
794993 893087 525
823087 767992 468
910232 948858 507
857697 633615 525
561434 689605 509
894833 792887 525
784743 925550 525
666926 821401 504
711567 956925 525
784877 852608 525
754100 705523 424
829693 624865 509
515829 656762 509
947630 741509 525
701408 885468 525
833815 977734 525
654717 532775 509
851885 868721 419
691427 838022 525
575422 575439 222
756953 564038 509
697210 871687 525
658055 741541 504
565333 755613 509
521677 649144 509
982494 960326 458
815404 849624 525
664559 866634 525
903918 988178 507
847586 617224 525
555861 866168 525
508303 885208 525
705887 631892 504
639271 719853 504
608389 907939 525
539774 964391 525
849317 534352 525
776870 866142 525
699308 519516 509
612962 743705 509
928384 795412 525
778923 665254 504
639041 727669 504
653268 946651 525
659323 919588 525
764383 909838 525
543605 740147 509
717985 683213 504
878645 821122 525
800938 861268 525
805987 788526 468
623025 778517 509
576498 689341 509
588953 835898 509
824804 753056 468
730257 997447 525
505247 641368 509
600977 643100 509
511110 617606 470
514263 919418 525
708371 983035 525
602885 671145 509
534176 966389 525